^C:\USERS\USER\DOCUMENTS\VISUAL STUDIO 2012\PROJECTS\PRACTIKA\PRACTIKA\SOURCE.CPP
C:\USERS\USER\DOCUMENTS\VISUAL STUDIO 2012\PROJECTS\PRACTIKA\PRACTIKA\DEBUG\SOURCE.OBJ
C:\USERS\USER\DOCUMENTS\VISUAL STUDIO 2012\PROJECTS\PRACTIKA\PRACTIKA\DEBUG\VC110.PDB
